^C:\USERS\PRIYA\DOCUMENTS\VISUAL STUDIO 2019\CODE SNIPPETS\VISUAL C++\MY CODE SNIPPETS\HANDSONTESTEXAMPLES\HANDSONTESTEXAMPLES\PATTERNGENERATOR\PATTERNGENERATOR.RC
C:\USERS\PRIYA\DOCUMENTS\VISUAL STUDIO 2019\CODE SNIPPETS\VISUAL C++\MY CODE SNIPPETS\HANDSONTESTEXAMPLES\HANDSONTESTEXAMPLES\PATTERNGENERATOR\RESOURCE.H
C:\USERS\PRIYA\DOCUMENTS\VISUAL STUDIO 2019\CODE SNIPPETS\VISUAL C++\MY CODE SNIPPETS\HANDSONTESTEXAMPLES\HANDSONTESTEXAMPLES\PATTERNGENERATOR\TARGETVER.H
C:\PROGRAM FILES (X86)\WINDOWS KITS\10\INCLUDE\10.0.19041.0\SHARED\SDKDDKVER.H
C:\PROGRAM FILES (X86)\MICROSOFT VISUAL STUDIO\2019\COMMUNITY\VC\TOOLS\MSVC\14.29.30133\ATLMFC\INCLUDE\AFXRES.H
C:\PROGRAM FILES (X86)\WINDOWS KITS\10\INCLUDE\10.0.19041.0\UM\WINRES.H
C:\PROGRAM FILES (X86)\WINDOWS KITS\10\INCLUDE\10.0.19041.0\UM\WINRESRC.H
C:\PROGRAM FILES (X86)\WINDOWS KITS\10\INCLUDE\10.0.19041.0\UM\WINUSER.RH
C:\PROGRAM FILES (X86)\WINDOWS KITS\10\INCLUDE\10.0.19041.0\SHARED\WINAPIFAMILY.H
C:\PROGRAM FILES (X86)\WINDOWS KITS\10\INCLUDE\10.0.19041.0\SHARED\WINPACKAGEFAMILY.H
C:\PROGRAM FILES (X86)\WINDOWS KITS\10\INCLUDE\10.0.19041.0\UM\COMMCTRL.RH
C:\PROGRAM FILES (X86)\WINDOWS KITS\10\INCLUDE\10.0.19041.0\UM\DDE.RH
C:\PROGRAM FILES (X86)\WINDOWS KITS\10\INCLUDE\10.0.19041.0\UM\WINNT.RH
C:\PROGRAM FILES (X86)\WINDOWS KITS\10\INCLUDE\10.0.19041.0\UM\DLGS.H
C:\PROGRAM FILES (X86)\WINDOWS KITS\10\INCLUDE\10.0.19041.0\UM\WINVER.H
C:\PROGRAM FILES (X86)\WINDOWS KITS\10\INCLUDE\10.0.19041.0\SHARED\SPECSTRINGS.H
C:\PROGRAM FILES (X86)\MICROSOFT VISUAL STUDIO\2019\COMMUNITY\VC\TOOLS\MSVC\14.29.30133\INCLUDE\SAL.H
C:\PROGRAM FILES (X86)\MICROSOFT VISUAL STUDIO\2019\COMMUNITY\VC\TOOLS\MSVC\14.29.30133\INCLUDE\CONCURRENCYSAL.H
C:\PROGRAM FILES (X86)\WINDOWS KITS\10\INCLUDE\10.0.19041.0\SHARED\DRIVERSPECS.H
C:\PROGRAM FILES (X86)\WINDOWS KITS\10\INCLUDE\10.0.19041.0\SHARED\SDV_DRIVERSPECS.H
C:\PROGRAM FILES (X86)\WINDOWS KITS\10\INCLUDE\10.0.19041.0\UM\VERRSRC.H
C:\USERS\PRIYA\DOCUMENTS\VISUAL STUDIO 2019\CODE SNIPPETS\VISUAL C++\MY CODE SNIPPETS\HANDSONTESTEXAMPLES\HANDSONTESTEXAMPLES\PATTERNGENERATOR\RES\PATTERNGENERATOR.RC2
C:\PROGRAM FILES (X86)\MICROSOFT VISUAL STUDIO\2019\COMMUNITY\VC\TOOLS\MSVC\14.29.30133\ATLMFC\INCLUDE\AFXRES.RC
C:\PROGRAM FILES (X86)\MICROSOFT VISUAL STUDIO\2019\COMMUNITY\VC\TOOLS\MSVC\14.29.30133\ATLMFC\INCLUDE\AFXPRINT.RC
C:\USERS\PRIYA\DOCUMENTS\VISUAL STUDIO 2019\CODE SNIPPETS\VISUAL C++\MY CODE SNIPPETS\HANDSONTESTEXAMPLES\HANDSONTESTEXAMPLES\PATTERNGENERATOR\RES\PATTERNGENERATOR.ICO
C:\USERS\PRIYA\DOCUMENTS\VISUAL STUDIO 2019\CODE SNIPPETS\VISUAL C++\MY CODE SNIPPETS\HANDSONTESTEXAMPLES\HANDSONTESTEXAMPLES\PATTERNGENERATOR\RES\PATTERNGENERATORDOC.ICO
C:\USERS\PRIYA\DOCUMENTS\VISUAL STUDIO 2019\CODE SNIPPETS\VISUAL C++\MY CODE SNIPPETS\HANDSONTESTEXAMPLES\HANDSONTESTEXAMPLES\PATTERNGENERATOR\RES\TOOLBAR.BMP
C:\USERS\PRIYA\DOCUMENTS\VISUAL STUDIO 2019\CODE SNIPPETS\VISUAL C++\MY CODE SNIPPETS\HANDSONTESTEXAMPLES\HANDSONTESTEXAMPLES\PATTERNGENERATOR\RES\TOOLBAR256.BMP
C:\USERS\PRIYA\DOCUMENTS\VISUAL STUDIO 2019\CODE SNIPPETS\VISUAL C++\MY CODE SNIPPETS\HANDSONTESTEXAMPLES\HANDSONTESTEXAMPLES\PATTERNGENERATOR\RES\MAIN.BMP
C:\USERS\PRIYA\DOCUMENTS\VISUAL STUDIO 2019\CODE SNIPPETS\VISUAL C++\MY CODE SNIPPETS\HANDSONTESTEXAMPLES\HANDSONTESTEXAMPLES\PATTERNGENERATOR\RES\FILELARGE.BMP
C:\USERS\PRIYA\DOCUMENTS\VISUAL STUDIO 2019\CODE SNIPPETS\VISUAL C++\MY CODE SNIPPETS\HANDSONTESTEXAMPLES\HANDSONTESTEXAMPLES\PATTERNGENERATOR\RES\FILESMALL.BMP
C:\USERS\PRIYA\DOCUMENTS\VISUAL STUDIO 2019\CODE SNIPPETS\VISUAL C++\MY CODE SNIPPETS\HANDSONTESTEXAMPLES\HANDSONTESTEXAMPLES\PATTERNGENERATOR\RES\WRITELARGE.BMP
C:\USERS\PRIYA\DOCUMENTS\VISUAL STUDIO 2019\CODE SNIPPETS\VISUAL C++\MY CODE SNIPPETS\HANDSONTESTEXAMPLES\HANDSONTESTEXAMPLES\PATTERNGENERATOR\RES\WRITESMALL.BMP
C:\USERS\PRIYA\DOCUMENTS\VISUAL STUDIO 2019\CODE SNIPPETS\VISUAL C++\MY CODE SNIPPETS\HANDSONTESTEXAMPLES\HANDSONTESTEXAMPLES\PATTERNGENERATOR\RES\BUTTONS.BMP
C:\USERS\PRIYA\DOCUMENTS\VISUAL STUDIO 2019\CODE SNIPPETS\VISUAL C++\MY CODE SNIPPETS\HANDSONTESTEXAMPLES\HANDSONTESTEXAMPLES\PATTERNGENERATOR\RES\NAV_LARGE.BMP
C:\USERS\PRIYA\DOCUMENTS\VISUAL STUDIO 2019\CODE SNIPPETS\VISUAL C++\MY CODE SNIPPETS\HANDSONTESTEXAMPLES\HANDSONTESTEXAMPLES\PATTERNGENERATOR\RES\NAV_LARGE_HC.BMP
C:\USERS\PRIYA\DOCUMENTS\VISUAL STUDIO 2019\CODE SNIPPETS\VISUAL C++\MY CODE SNIPPETS\HANDSONTESTEXAMPLES\HANDSONTESTEXAMPLES\PATTERNGENERATOR\RES\PAGES.BMP
C:\USERS\PRIYA\DOCUMENTS\VISUAL STUDIO 2019\CODE SNIPPETS\VISUAL C++\MY CODE SNIPPETS\HANDSONTESTEXAMPLES\HANDSONTESTEXAMPLES\PATTERNGENERATOR\RES\PAGES_HC.BMP
C:\USERS\PRIYA\DOCUMENTS\VISUAL STUDIO 2019\CODE SNIPPETS\VISUAL C++\MY CODE SNIPPETS\HANDSONTESTEXAMPLES\HANDSONTESTEXAMPLES\PATTERNGENERATOR\RES\PAGES_SMALL.BMP
C:\USERS\PRIYA\DOCUMENTS\VISUAL STUDIO 2019\CODE SNIPPETS\VISUAL C++\MY CODE SNIPPETS\HANDSONTESTEXAMPLES\HANDSONTESTEXAMPLES\PATTERNGENERATOR\RES\PAGES_SMALL_HC.BMP
C:\USERS\PRIYA\DOCUMENTS\VISUAL STUDIO 2019\CODE SNIPPETS\VISUAL C++\MY CODE SNIPPETS\HANDSONTESTEXAMPLES\HANDSONTESTEXAMPLES\PATTERNGENERATOR\RES\INFO.BMP
C:\USERS\PRIYA\DOCUMENTS\VISUAL STUDIO 2019\CODE SNIPPETS\VISUAL C++\MY CODE SNIPPETS\HANDSONTESTEXAMPLES\HANDSONTESTEXAMPLES\PATTERNGENERATOR\RES\RIBBON.MFCRIBBON-MS
